Sex biased mutation rate
…
Confidence intervals -

df= sex_bias_mut_df %>% 
  filter(upper_lower_meaning == "Lower and upper estimates are the 95% confidence interval for alpha"|
         upper_lower_meaning == "Lower and upper estimates are 2 standard errors from the mean (rough 95% confidence interval)") %>% 
  mutate(se = (alpha_estimate_upper - alpha_point_estimate)/2) 

df %>% 
  select(taxonomic_class,se) %>% 
  mutate(row = row_number()) %>% 
  pivot_wider(names_from = taxonomic_class,
              values_from = se,
              values_fn = list)

# A tibble: 118 x 6
     row Mammalia  Aves      Amphibia Reptilia Insecta
   <int> <list>    <list>    <list>   <list>   <list> 
 1     1 <dbl [1]> <NULL>    <NULL>   <NULL>   <NULL> 
 2     2 <dbl [1]> <NULL>    <NULL>   <NULL>   <NULL> 
 3     3 <dbl [1]> <NULL>    <NULL>   <NULL>   <NULL> 
 4     4 <dbl [1]> <NULL>    <NULL>   <NULL>   <NULL> 
 5     5 <NULL>    <dbl [1]> <NULL>   <NULL>   <NULL> 
 6     6 <dbl [1]> <NULL>    <NULL>   <NULL>   <NULL> 
 7     7 <NULL>    <dbl [1]> <NULL>   <NULL>   <NULL> 
 8     8 <NULL>    <dbl [1]> <NULL>   <NULL>   <NULL> 
 9     9 <dbl [1]> <NULL>    <NULL>   <NULL>   <NULL> 
10    10 <NULL>    <dbl [1]> <NULL>   <NULL>   <NULL> 
# ... with 108 more rows
…
